394952 211519 443
214535 932623 525
557275 637998 509
454002 63221 449
488977 406918 449
584982 248423 470
493173 318886 449
249867 917145 525
157101 852152 525
146187 684022 509
427636 79296 449
94359 980170 525
751156 984609 525
583434 318285 470
737385 51626 509
858376 864791 370
45822 459006 449
413705 391188 449
171732 283584 443
846794 45797 525
597151 720770 509
960490 251125 525
244577 63072 443
284113 546032 470
516977 962149 525
336993 700471 509
148891 118015 375
597684 218441 470
743094 870640 525
697003 961270 525
612673 242939 470
619789 972317 525
854224 66595 525
343345 784326 509
435373 160649 449
681021 328157 509
214704 901650 525
444575 42829 449
834824 954397 525
75187 66688 325
682438 48345 509
274301 546176 470
866500 971612 507
151834 265132 443
544642 528071 408
765883 200354 509
84927 508250 449
803610 557478 509
46904 588609 470
9305 748600 509
726735 943345 525
998537 15223 525
561262 535399 452
851360 886505 432
134030 731026 509
854116 203809 525
380999 708953 509
133022 603169 470
441841 462822 444
266893 372575 441
454599 81161 449
45200 203488 383
486497 999772 525
162453 641178 509
624712 584721 447
934140 763769 525
44999 813252 509
490472 635212 509
191025 705498 509
401000 211306 443
809972 808520 344
390617 458921 449
914139 654808 525
689599 564486 509
894719 680623 525
554379 488255 470
304382 92894 443
207142 278972 443
861202 615420 525
716701 412837 509
703005 865431 525
770625 443910 509
144451 198906 383
910943 972129 507
772696 471105 509
343453 995695 525
213720 303712 443
348159 168570 443
433105 765437 509
505890 897852 525
222611 616699 470
943420 64782 525
59605 380478 443
867845 307740 525
45882 285566 443
543336 312939 470
384418 258211 441
458627 559277 470
937424 661190 525
752454 239783 509
478800 432669 444
840333 634808 525
427689 741705 509
281298 656482 509
766522 752444 424
481982 922268 525
150546 104308 375
722225 693561 504
7922 63793 340
946169 173924 525
972098 457090 525
579756 8842 470
214981 688656 509
307131 661732 509
433695 597486 470
79445 178216 383
490481 160207 449
430610 701618 509
566995 135335 470
622340 813686 509
473872 196974 449
263567 573353 470
885961 15868 525
789533 720009 468
319894 998843 525
596930 390316 470
648770 474059 509
176072 946507 525
103719 430687 449
467036 655647 509
952735 306080 525
121311 765412 509
825581 121480 509
891325 770202 525
216368 423410 449
297572 972856 525
820435 738175 468
448237 627688 509
951189 35622 525
352251 61642 443
732935 304248 509
548365 293831 470
957416 506199 525
162780 432173 449
910039 506792 525
554887 52984 470
440938 62020 449
577325 142170 470
243246 476719 449
362503 728952 509
79063 81167 320
460010 308248 449
543889 626722 509
644192 801516 504
83420 135960 354
214924 421950 449
798457 461348 509
117778 338540 443
313773 11087 443
892454 364673 525
274570 115348 443
401357 878806 525
350380 337303 441
561848 406243 470
753612 372215 509
496185 940845 525
620352 774826 509
790348 340990 509
954562 49623 525
603427 342048 470
321253 240678 407
425256 851599 525
674267 866945 525
213755 934099 525
451053 441461 387
807935 125509 509
363062 602995 470
607842 889816 525
817732 639914 504
919028 127468 525
15262 802138 509
844260 270211 525
445282 343915 449
239155 477496 449
220064 236552 443
826750 792982 468
228069 889901 525
718091 69947 509
59085 410667 449
514891 163716 470
338400 282472 389
878161 236155 525
487412 725016 509
124586 449855 449
427347 190759 449
550327 718557 509
857063 79641 525
346218 570224 470
641510 305083 509
866280 145434 525
71258 9309 340
536295 715803 509
514152 84506 470
25048 978134 525
597316 22876 470
506692 776548 509
426164 781895 509
439033 925306 525
411818 343620 449
974517 632812 525
363812 548301 470
815536 426689 509
801793 139988 509
168014 155853 383
