829336 603671
457279 662304
284571 297425
267888 105345
48686 56720
45456 7110
521264 211034
106989 746070
821000 154850
425520 561680
322808 833776
920857 25961
387224 146797
32158 339136
885625 864802
507643 724872
46058 52139
78152 397913
610837 194891
31972 279862
507180 917571
921412 788981
493446 397950
968558 347566
473624 838072
189909 635898
884327 74863
589034 419112
599292 695333
624001 777815
62596 689093
295518 419723
787558 867162
46859 62784
885385 620509
3157 764373
472354 25972
59471 565557
660802 504043
352175 428469
398699 876298
830029 883055
600264 382453
739788 995643
595149 414849
122576 439284
870257 783328
432143 919556
220916 849258
199633 658857
391995 54229
485223 496820
348212 671797
164096 620360
196136 527793
278886 129567
944949 308010
180089 97769
812906 119001
275859 170487
456280 174658
271202 107019
43503 621399
360869 883531
377382 791269
569029 54150
68573 865705
423150 844214
890831 369639
444381 858508
28834 703789
268233 744479
628816 989804
27208 863070
134004 739848
453050 140066
903472 217710
217016 903930
45824 248653
621182 281602
217438 241631
342412 704837
151433 936393
100081 999986
897601 243484
217059 198180
627835 509114
930513 610437
990485 659760
793035 534366
937380 954281
520006 134223
114677 72044
98025 894367
710590 792295
292174 917374
304353 23723
46151 583744
356624 831590
342158 159928
472241 249310
243670 987533
190526 840080
929824 909289
924552 939273
507943 880562
936342 539821
231510 329318
537127 558513
610249 783030
907610 629473
276799 491757
909817 903422
512295 223731
231702 260104
534059 503579
237548 798600
408127 850163
86674 52678
448618 525768
828106 892158
815505 590757
532714 478782
988790 648436
878234 975450
870726 244992
225406 551835
288784 610827
268840 149164
577708 13607
55733 579455
886915 776623
577869 571651
58353 998385
232078 795453
287329 652945
231416 713202
379259 246217
21293 26523
373988 762864
912834 566532
538354 190505
454724 893014
527458 789629
192679 401367
767207 180257
39164 957872
18759 123889
95427 787877
279925 185396
344964 919676
611381 828537
967544 232950
943204 867327
988673 342419
994632 769345
217993 989552
768780 697329
347011 783240
321195 206642
463714 473339
48280 644504
484035 180801
667898 799454
211682 756502
798254 335539
563099 392668
690378 742089
153031 919040
994922 854592
837528 79753
964406 965162
672771 416812
44864 232071
1389 483444
691143 245598
479361 210496
494363 384804
109006 537087
594140 948174
412130 869211
677011 546078
164469 568032
999796 128792
540901 734537
626391 672029
449452 624067
995100 533485
24180 821456
479779 908764
226154 205865
602773 866733
150456 977378
531199 407726
209316 109873
957276 338819
143749 68509
684353 109343
633852 979777
248736 963822
296880 718258
207628 650455
252117 80246
359655 326041
405981 622727
787353 333424
385491 847086
514996 625557
540286 497081
330240 625545
788959 586242
23530 268311
845647 835792
890505 891783
38614 81502
111470 909725
357736 465924
198226 522618
452738 716610
896443 640904
839553 263378
882061 758496
727378 874075
683818 178862
260696 982879
970873 534225
447620 533357
433002 568468
797541 559905
524253 44098
460869 706416
263010 790237
633005 454430
788041 752303
