330700 95881
627271 113606
65570 122516
433665 473526
783261 770844
450362 526921
944313 393720
195309 166476
712248 580625
568214 874367
986479 573331
878432 817328
25653 344213
322437 529403
300500 566034
479705 121008
545560 423758
285880 403190
292400 172462
266173 618576
983484 765236
939804 701005
890178 715245
643948 757417
225372 977962
38285 622315
410647 7144
767642 726362
577531 294226
5106 516432
165750 471411
371984 215828
865847 886903
634133 950083
688391 566678
744985 402901
228322 690629
717746 216880
908028 352022
114723 111945
505172 645319
163446 339450
220969 126753
840493 5167
64566 906662
394290 873728
562277 735928
915046 473869
716359 187933
833793 919754
923162 831326
545811 150086
238995 125560
666843 709143
932134 817574
201960 684934
962663 188461
485083 886939
730348 760064
968718 522374
17637 758004
416673 538164
369619 999982
945787 145550
402967 270016
503419 737686
183307 793030
858372 706103
360310 470831
684779 515871
901893 647336
813913 842651
878129 637023
400157 278338
446995 989195
275253 962077
900207 736308
499364 567753
356947 388940
288718 695418
570234 385496
668737 780465
978625 477455
503220 159039
693468 39262
177785 580972
379543 85366
440120 291287
542443 527441
302940 123747
842131 300657
221023 243106
304609 323787
406642 224099
181682 175963
846495 476160
798458 471042
69695 118580
37875 813958
476507 248243
217766 924560
334276 877972
600999 882693
390759 215094
57048 943591
906620 977867
857778 397788
104792 122987
29350 887886
890000 93858
304585 541372
363807 581056
70043 778859
520062 254883
720207 26018
777760 811857
752802 708305
895744 310812
888234 197585
659546 804556
940272 732070
632929 333073
777278 651745
495094 235201
96018 921050
552662 535378
622181 427118
67489 777629
844333 183609
896560 874092
920527 183060
280999 464471
574116 209314
854879 404783
701600 172987
194188 48248
362355 295358
63127 479221
175550 450858
846221 48600
266018 372569
15101 332071
926912 239187
608177 169245
535301 496460
879258 327908
272645 450641
823411 65094
218139 296071
156252 426616
916495 198494
847240 660903
810919 351337
766559 872511
286730 723482
854103 306984
708086 995772
850164 403263
538899 7652
837250 173496
204667 421451
782384 182024
179257 255029
870506 512694
940328 270767
355380 485126
505114 834862
111035 193609
783463 995104
399361 979878
641015 201088
908980 79617
701695 997039
263731 321009
686546 943603
785195 368302
229411 369692
211350 9762
293621 274700
829785 624206
649421 933820
233310 116563
313876 651444
947533 716513
514680 863555
848452 621037
970024 700433
140928 595491
989143 584576
767766 675191
450284 673861
16264 187542
429474 868273
913539 37179
589043 786720
605744 798308
817696 64508
697664 535367
154244 668555
114770 458633
871099 265851
601128 713642
716077 849653
976206 999849
118728 91426
452940 603598
213347 431131
696649 313450
852008 167205
809900 704427
437163 522330
501676 824891
585762 654977
921797 984952
253923 865987
216330 824980
604045 399986
50125 947453
966021 249217
128751 397677
439042 289331
832801 669873
380191 130243
326101 853722
930282 328167
574169 591182
374178 851733
531386 24395
230314 894005
480180 700104
440462 258190
686123 63395
525193 514816
372948 747364
28729 778223
23680 466031
113673 912265
657139 191133
415989 985110
889561 293639
930700 571676
422240 982649
459600 301755
390724 942843
210963 278254
