102623 191131
76290 753320
657743 166269
461080 207066
728369 72383
842683 698946
750073 853816
977287 246662
477803 288880
365889 219576
681230 596244
181714 103498
154967 69558
965713 921125
204305 190756
115183 249161
539480 647797
236862 749936
556779 707084
106172 484579
496146 186637
46998 54984
847645 270276
206277 407693
47924 98992
828908 754049
863215 466101
843197 411493
136332 144520
712618 952155
616613 73537
770227 194751
186630 133482
329106 174611
530109 49651
607800 116745
512024 199849
325647 335533
502847 6007
722140 629229
268741 101847
636936 836675
955019 942615
777427 990674
496218 547845
276779 323574
679562 8953
443074 468157
328505 613146
977728 824471
506274 297281
355299 43994
992135 821887
801674 21227
246595 971424
584835 932892
840359 60010
599530 330422
506464 187866
457015 46238
183592 647757
101385 821641
85159 419808
983179 173660
63119 36392
606733 758749
749231 86773
876543 58165
417769 105766
409458 419265
389457 701564
766230 826250
976893 887932
970738 988161
865701 245823
743488 744077
60534 751
502870 592616
129728 223355
131298 116931
805646 507264
779222 152692
332420 397868
798201 599188
996706 729074
974145 732569
591592 798466
156259 939988
606237 716955
445996 118575
747796 587408
319485 537061
131629 186168
646007 380659
131907 71268
860929 56369
177586 937962
900545 121349
180790 542898
549364 990888
944473 363314
726004 636649
457365 259774
440978 755170
437851 940605
208973 714136
990071 712941
882734 429887
64455 730061
922483 922484
487370 994157
831042 57678
212446 767057
991685 55630
654632 512087
436875 599893
141207 51897
246875 399854
90530 921693
273071 661131
448837 384816
522479 592621
976219 14746
974405 460758
205333 780315
865910 422760
308397 356246
179629 218306
770204 792351
426890 275853
678903 208979
285810 85537
345881 329667
519687 463259
27011 8493
942903 758616
241945 449923
793230 978847
697411 639302
746069 571097
960304 557443
716699 685808
397046 246357
597576 825443
681158 648383
302763 840088
762721 714326
421291 152234
476577 784882
864876 942766
438017 568423
683451 550716
437533 281810
311206 678628
510672 527779
852722 818696
247134 847564
950181 617725
863877 491499
585335 198338
960764 40109
951395 981056
513755 453979
370322 982011
716946 849702
208477 464133
530338 108800
764924 354827
454971 811388
410339 662399
62250 681765
130351 912248
891255 392948
695074 176642
42852 518882
716739 573440
861060 916941
849318 427254
27096 208691
243722 452986
611748 701249
795412 948661
666323 844529
300551 620595
513688 765785
230373 159745
176585 814276
822853 726873
753373 344588
164513 88874
460079 410434
430406 171288
111760 711935
483436 616851
526872 450748
906483 140740
127765 750398
744193 590396
55622 89428
891331 335039
175524 899042
305110 686723
337222 359799
479280 541163
749744 877065
667394 498194
694849 399692
604559 321651
540445 60710
267884 25332
673516 8434
25044 571181
433173 411009
823366 566377
372585 467167
518592 127053
226811 864443
53286 232799
132204 96380
103102 398250
502877 679947
782091 347588
31284 768725
190462 641216
957234 340673
970977 596470
872752 834293
920817 864091
435276 167795
80579 80600
