364054 737365
138 64863
446248 389785
45719 6124
262098 645867
571347 107627
925432 57285
714643 553956
418806 698941
858976 335186
116867 63560
123714 768462
97120 490400
979560 28365
304047 695953
383282 707191
308923 542886
772540 516802
595163 138531
669810 399535
470731 797586
559308 115247
803116 611405
872423 158566
141076 506754
851589 712983
669315 750114
817164 175727
970671 545729
327961 348909
337569 144590
666886 520561
341931 10623
596409 467212
991949 343293
107880 474245
49528 781563
246946 498833
835544 644472
53658 659162
226736 463502
745518 523136
84332 575809
545602 587714
538143 156638
344223 981877
813087 161719
975918 17803
719196 851344
366437 224259
974303 586254
697730 416757
663083 621018
617474 388828
713919 396150
118248 933052
899568 246778
119399 373439
103431 233896
625542 532306
822906 880409
680596 532768
126497 562243
950872 691508
363033 139858
79068 687858
559723 950310
500216 808082
206124 278260
690762 923714
240545 401879
610391 534175
463439 269984
369604 646697
353605 559201
779923 951499
931984 603676
535165 522254
830740 618748
26228 247947
840598 920271
442002 354781
601373 226302
24527 786047
205717 88783
800031 757866
955500 811469
4027 239236
467119 20358
15620 763372
240720 493184
324265 188147
502560 600086
110583 176369
486206 663387
796686 109055
459656 353936
813493 363825
844577 406136
732635 314790
724884 902416
164253 673159
926102 475365
42479 244618
622964 750795
379459 625200
521205 904913
561924 618395
784357 318794
544451 710638
471053 22682
433486 133751
760579 291386
922148 849500
802248 583794
516138 920853
850701 319805
532796 204331
291682 660524
945186 801869
267698 385989
686913 541772
332018 360570
190080 211299
985480 685467
527968 198514
580783 913643
57673 328828
83164 401140
269598 776832
473967 553134
203615 335025
376936 706881
989864 195816
10171 561046
828685 333751
714720 140551
143818 679155
292771 206833
337756 249751
173933 653333
846678 50823
970141 978797
770249 610222
934347 835618
899341 775723
968607 469711
868371 743674
184745 757054
980705 467608
58787 394915
74130 8950
801191 731032
708249 652341
809133 598476
215145 949186
342119 334710
105643 128372
228298 11145
849463 573335
756508 651941
24568 311305
806527 213042
663592 767458
179246 290558
246057 539563
315998 670509
511506 626595
16494 136006
274545 791833
127330 59491
656379 417871
689411 25430
854959 147006
88894 47308
236472 145346
884690 572074
551180 768668
390722 937279
846647 172881
722187 387397
834217 415709
73791 485631
83513 170228
852989 100841
440721 928652
861449 746388
298121 758531
79488 130236
320598 92738
10476 634789
16340 221086
241729 853304
118524 494312
948400 781269
201461 673122
918736 401552
790912 579499
797668 878754
528130 910652
412314 724036
695845 929292
720270 62885
252243 474941
323120 482778
284817 302599
768174 745155
931438 468790
350417 53688
875350 185013
48071 985124
149679 849405
874718 520878
304267 360606
195515 158133
283570 952493
94626 848032
25019 925553
824766 252489
789762 764651
376147 458980
164947 326922
218867 144454
817006 735594
421855 79009
730656 337407
433706 506927
88877 805947
320368 475110
859971 262478
447014 423493
644062 12277
868272 532633
365620 709582
37795 903904
390008 894614
477938 33666
939527 248433
936728 643608
580231 153992
157357 288683
826784 171456
944592 484664
760294 943019
492658 798425
260760 474322
742810 533192
973407 491241
820095 562365
215462 314241
548484 61928
647653 253905
877687 508617
677832 368366
814953 297007
135847 624171
220094 462245
888399 949777
