876643 456266
868098 362548
488301 714162
929912 165768
131562 138401
448163 701098
565251 280228
68936 177012
517886 824929
870936 130642
819840 947979
183372 108046
687424 670103
545212 497867
223409 260249
352906 109488
517136 106333
518797 716865
845345 610942
960267 644489
350798 262597
81659 220353
43673 269818
500294 838848
305119 193483
155273 891874
908968 323546
227129 150388
772551 768473
553430 163328
699069 758209
93630 906994
43552 236701
192456 732917
487273 349774
493038 250753
191987 743868
943320 555966
511776 136879
18897 606913
495437 850878
276008 943907
769709 257630
716653 228215
713772 563072
778452 851093
849982 316717
827844 795406
779502 101260
638904 699630
888251 207083
355967 371936
989778 356388
757467 267017
756906 663934
609088 722089
653935 512116
539164 909871
867302 840619
227662 963937
558508 868009
961866 872623
352173 261480
459331 591139
158660 859269
765296 715097
89090 519941
371703 989269
10392 184518
629477 957437
431745 539137
596186 611752
29829 402348
564252 483851
22224 644890
761903 955177
851399 596925
893996 70341
189694 942134
642557 620176
695184 24744
785716 827747
24141 682512
166472 732937
772952 751891
701901 428583
908008 932318
134498 691169
974789 226319
647741 650957
677423 426905
375824 715292
323785 287600
396077 437152
225894 359972
94205 922043
586018 990160
174329 536900
157407 950927
690143 77189
528206 256799
927684 836652
427075 468503
267012 354062
673377 152932
696410 623912
186407 72391
861255 649286
989064 130243
719426 501272
249907 700990
867556 798397
944873 558390
219938 209619
267072 617223
19594 579731
697199 950671
656757 344905
490347 447505
958768 74263
107419 558662
825731 346580
392340 110362
297343 338274
994638 905246
875303 569591
460253 536225
313596 501660
685030 725662
758149 878552
521188 216287
100495 488788
77410 202510
561197 660199
735017 939346
179919 666331
686216 552412
545464 610277
596412 295012
140852 653013
811226 525561
183719 851950
394392 793317
626729 955918
4017 607268
611221 837038
887630 804182
825738 427403
331241 883516
302978 207758
438093 839619
265457 710781
211554 955289
186220 581024
728348 145894
385086 128849
98500 501204
135815 735049
681701 305041
266126 310813
463667 717612
954696 345401
300831 337105
906505 940481
195636 70157
722546 252214
291205 113042
924083 558245
256409 422423
136480 188859
537506 259322
923806 792907
535751 387745
257053 634608
341908 8205
74511 792116
435315 93998
258921 634112
914371 911512
553991 390204
256711 41413
456296 237534
339769 230082
410486 344523
349841 304749
892711 165224
607743 389064
337976 525138
527994 856748
622289 406620
780125 797542
758612 644442
404957 997607
630876 183733
980751 464622
865392 230553
274482 474875
330998 916944
442846 88002
851465 947249
488588 39286
703 826260
341291 569091
10013 321473
559895 895079
697721 212031
379040 735697
389546 25790
223773 201266
467325 31387
538503 744874
365533 515144
947834 935566
224134 795748
184152 438965
61219 889263
